Queryhttps://api.spotify.com/v1/search?q='The Sign'&type=track&limit=1
{
  "tracks": {
    "href": "https://api.spotify.com/v1/search?query=%27The+Sign%27&type=track&offset=0&limit=1",
    "items": [
      {
        "album": {
          "album_type": "compilation",
          "artists": [
            {
              "external_urls": {
                "spotify": "https://open.spotify.com/artist/0LyfQWJT6nXafLPZqxe9Of"
              },
              "href": "https://api.spotify.com/v1/artists/0LyfQWJT6nXafLPZqxe9Of",
              "id": "0LyfQWJT6nXafLPZqxe9Of",
              "name": "Various Artists",
              "type": "artist",
              "uri": "spotify:artist:0LyfQWJT6nXafLPZqxe9Of"
            }
          ],
          "available_markets": [
            "AD",
            "AE",
            "AR",
            "AT",
            "AU",
            "BE",
            "BG",
            "BH",
            "BO",
            "BR",
            "CA",
            "CH",
            "CL",
            "CO",
            "CR",
            "CY",
            "CZ",
            "DE",
            "DK",
            "DO",
            "DZ",
            "EC",
            "EE",
            "EG",
            "ES",
            "FI",
            "FR",
            "GB",
            "GR",
            "GT",
            "HK",
            "HN",
            "HU",
            "ID",
            "IE",
            "IL",
            "IS",
            "IT",
            "JO",
            "JP",
            "KW",
            "LB",
            "LI",
            "LT",
            "LU",
            "LV",
            "MA",
            "MC",
            "MT",
            "MX",
            "MY",
            "NI",
            "NL",
            "NO",
            "NZ",
            "OM",
            "PA",
            "PE",
            "PH",
            "PL",
            "PS",
            "PT",
            "PY",
            "QA",
            "RO",
            "SA",
            "SE",
            "SG",
            "SK",
            "SV",
            "TH",
            "TN",
            "TR",
            "TW",
            "US",
            "UY",
            "VN",
            "ZA"
          ],
          "external_urls": {
            "spotify": "https://open.spotify.com/album/35s58BRTGAEWztPo9WqCIs"
          },
          "href": "https://api.spotify.com/v1/albums/35s58BRTGAEWztPo9WqCIs",
          "id": "35s58BRTGAEWztPo9WqCIs",
          "images": [
            {
              "height": 640,
              "url": "https://i.scdn.co/image/3aa37254a41cf96e81572524ec523cb870f2bb89",
              "width": 640
            },
            {
              "height": 300,
              "url": "https://i.scdn.co/image/c30bfc4adfa8924e87f3dff571d0d8c6f032fa0a",
              "width": 300
            },
            {
              "height": 64,
              "url": "https://i.scdn.co/image/923b854eefa3fe67c5089c45fb9efea4fbc5c7af",
              "width": 64
            }
          ],
          "name": "Spider-Man: Into the Spider-Verse (Soundtrack From & Inspired by the Motion Picture)",
          "release_date": "2018-12-14",
          "release_date_precision": "day",
          "total_tracks": 13,
          "type": "album",
          "uri": "spotify:album:35s58BRTGAEWztPo9WqCIs"
        },
        "artists": [
          {
            "external_urls": {
              "spotify": "https://open.spotify.com/artist/55Aa2cqylxrFIXC767Z865"
            },
            "href": "https://api.spotify.com/v1/artists/55Aa2cqylxrFIXC767Z865",
            "id": "55Aa2cqylxrFIXC767Z865",
            "name": "Lil Wayne",
            "type": "artist",
            "uri": "spotify:artist:55Aa2cqylxrFIXC767Z865"
          },
          {
            "external_urls": {
              "spotify": "https://open.spotify.com/artist/7c0XG5cIJTrrAgEC3ULPiq"
            },
            "href": "https://api.spotify.com/v1/artists/7c0XG5cIJTrrAgEC3ULPiq",
            "id": "7c0XG5cIJTrrAgEC3ULPiq",
            "name": "Ty Dolla $ign",
            "type": "artist",
            "uri": "spotify:artist:7c0XG5cIJTrrAgEC3ULPiq"
          },
          {
            "external_urls": {
              "spotify": "https://open.spotify.com/artist/15UsOTVnJzReFVN1VCnxy4"
            },
            "href": "https://api.spotify.com/v1/artists/15UsOTVnJzReFVN1VCnxy4",
            "id": "15UsOTVnJzReFVN1VCnxy4",
            "name": "XXXTENTACION",
            "type": "artist",
            "uri": "spotify:artist:15UsOTVnJzReFVN1VCnxy4"
          }
        ],
        "available_markets": [
          "AD",
          "AE",
          "AR",
          "AT",
          "AU",
          "BE",
          "BG",
          "BH",
          "BO",
          "BR",
          "CA",
          "CH",
          "CL",
          "CO",
          "CR",
          "CY",
          "CZ",
          "DE",
          "DK",
          "DO",
          "DZ",
          "EC",
          "EE",
          "EG",
          "ES",
          "FI",
          "FR",
          "GB",
          "GR",
          "GT",
          "HK",
          "HN",
          "HU",
          "ID",
          "IE",
          "IL",
          "IS",
          "IT",
          "JO",
          "JP",
          "KW",
          "LB",
          "LI",
          "LT",
          "LU",
          "LV",
          "MA",
          "MC",
          "MT",
          "MX",
          "MY",
          "NI",
          "NL",
          "NO",
          "NZ",
          "OM",
          "PA",
          "PE",
          "PH",
          "PL",
          "PS",
          "PT",
          "PY",
          "QA",
          "RO",
          "SA",
          "SE",
          "SG",
          "SK",
          "SV",
          "TH",
          "TN",
          "TR",
          "TW",
          "US",
          "UY",
          "VN",
          "ZA"
        ],
        "disc_number": 1,
        "duration_ms": 233000,
        "explicit": false,
        "external_ids": {
          "isrc": "USUM71820737"
        },
        "external_urls": {
          "spotify": "https://open.spotify.com/track/3vWzyGTu6Ovo1GdrcJqH6e"
        },
        "href": "https://api.spotify.com/v1/tracks/3vWzyGTu6Ovo1GdrcJqH6e",
        "id": "3vWzyGTu6Ovo1GdrcJqH6e",
        "is_local": false,
        "name": "Scared of the Dark (feat. XXXTENTACION)",
        "popularity": 81,
        "preview_url": null,
        "track_number": 11,
        "type": "track",
        "uri": "spotify:track:3vWzyGTu6Ovo1GdrcJqH6e"
      }
    ],
    "limit": 1,
    "next": "https://api.spotify.com/v1/search?query=%27The+Sign%27&type=track&offset=1&limit=1",
    "offset": 0,
    "previous": null,
    "total": 16704
  }
}
